module src

go 1.17

require (
	github.com/golang-jwt/jwt v3.2.2+incompatible
	github.com/google/uuid v1.3.0
	github.com/joho/godotenv v1.4.0
	github.com/labstack/echo/v4 v4.6.1
	github.com/rs/zerolog v1.26.0
	golang.org/x/crypto v0.0.0-20210921155107-089bfa567519
	gorm.io/driver/postgres v1.2.1
	gorm.io/gorm v1.22.2
)

require (
	github.com/jackc/chunkreader/v2 v2.0.1 // indirect
	github.com/jackc/pgconn v1.10.0 // indirect
	github.com/jackc/pgio v1.0.0 // indirect
	github.com/jackc/pgpassfile v1.0.0 // indirect
	github.com/jackc/pgproto3/v2 v2.1.1 // indirect
	github.com/jackc/pgservicefile v0.0.0-20200714003250-2b9c44734f2b // indirect
	github.com/jackc/pgtype v1.8.1 // indirect
	github.com/jackc/pgx/v4 v4.13.0 // indirect
	github.com/jinzhu/inflection v1.0.0 // indirect
	github.com/jinzhu/now v1.1.2 // indirect
	github.com/labstack/echo v3.3.10+incompatible
	github.com/labstack/gommon v0.3.0 // indirect
	github.com/mattn/go-colorable v0.1.11 // indirect
	github.com/mattn/go-isatty v0.0.14 // indirect
	github.com/valyala/bytebufferpool v1.0.0 // indirect
	github.com/valyala/fasttemplate v1.2.1 // indirect
	golang.org/x/net v0.0.0-20211101193420-4a448f8816b3 // indirect
	golang.org/x/sys v0.0.0-20211103235746-7861aae1554b // indirect
	golang.org/x/text v0.3.7 // indirect
	golang.org/x/time v0.0.0-20210723032227-1f47c861a9ac // indirect
)

require github.com/dgrijalva/jwt-go v3.2.0+incompatible // indirect
